{
    "data": [
        {
            "fullName": "Peter Jones",
            "job": "Production Assistant",
            "location": "Los Angles",
            "rate": 500
        },
        {
            "fullName": "Jessica Jones",
            "job": "Editor",
            "location": "Los Angles",
            "rate": 300
        }
    ]
}